^C:\USERS\USER\DOCUMENTS\MAGSHIMIM\YEAR 2\SEMESTER A\ADVANCED PROGRAMMING\LESSON 15\SOLUTION\EX1\DEBUG\DIGIT.OBJ|C:\USERS\USER\DOCUMENTS\MAGSHIMIM\YEAR 2\SEMESTER A\ADVANCED PROGRAMMING\LESSON 15\SOLUTION\EX1\DEBUG\INVALIDDIGITEXCEPTION.OBJ|C:\USERS\USER\DOCUMENTS\MAGSHIMIM\YEAR 2\SEMESTER A\ADVANCED PROGRAMMING\LESSON 15\SOLUTION\EX1\DEBUG\MAIN.OBJ
C:\USERS\USER\DOCUMENTS\MAGSHIMIM\YEAR 2\SEMESTER A\ADVANCED PROGRAMMING\LESSON 15\SOLUTION\DEBUG\EX1.ILK
C:\USERS\USER\DOCUMENTS\MAGSHIMIM\YEAR 2\SEMESTER A\ADVANCED PROGRAMMING\LESSON 15\SOLUTION\DEBUG\EX1.EXE
C:\USERS\USER\DOCUMENTS\MAGSHIMIM\YEAR 2\SEMESTER A\ADVANCED PROGRAMMING\LESSON 15\SOLUTION\DEBUG\EX1.PDB
