^C:\USERS\USER\DOCUMENTS\MAGSHIMIM\YEAR 2\SEMESTER A\ADVANCED PROGRAMMING\LESSON 15\SOLUTION\EX2\DEBUG\MAIN.OBJ
C:\USERS\USER\DOCUMENTS\MAGSHIMIM\YEAR 2\SEMESTER A\ADVANCED PROGRAMMING\LESSON 15\SOLUTION\DEBUG\EX2.EXE
C:\USERS\USER\DOCUMENTS\MAGSHIMIM\YEAR 2\SEMESTER A\ADVANCED PROGRAMMING\LESSON 15\SOLUTION\DEBUG\EX2.ILK
C:\USERS\USER\DOCUMENTS\MAGSHIMIM\YEAR 2\SEMESTER A\ADVANCED PROGRAMMING\LESSON 15\SOLUTION\DEBUG\EX2.PDB
