^C:\USERS\USER\DOCUMENTS\MAGSHIMIM\YEAR 2\SEMESTER A\ADVANCED PROGRAMMING\LESSON 15\SOLUTION\EX3\DRY.CPP
C:\USERS\USER\DOCUMENTS\MAGSHIMIM\YEAR 2\SEMESTER A\ADVANCED PROGRAMMING\LESSON 15\SOLUTION\EX3\DEBUG\VC141.PDB
C:\USERS\USER\DOCUMENTS\MAGSHIMIM\YEAR 2\SEMESTER A\ADVANCED PROGRAMMING\LESSON 15\SOLUTION\EX3\DEBUG\VC141.IDB
C:\USERS\USER\DOCUMENTS\MAGSHIMIM\YEAR 2\SEMESTER A\ADVANCED PROGRAMMING\LESSON 15\SOLUTION\EX3\DEBUG\DRY.OBJ
