﻿  main.cpp
c:\users\user\documents\magshimim\year 2\semester a\advanced programming\lesson 15\solution\ex1\main.cpp(30): warning C4018: '<': signed/unsigned mismatch
c:\users\user\documents\magshimim\year 2\semester a\advanced programming\lesson 15\solution\ex1\main.cpp(49): warning C4018: '<': signed/unsigned mismatch
  InvalidDigitException.cpp
  Digit.cpp
  Generating Code...
  Ex1.vcxproj -> C:\Users\user\Documents\Magshimim\Year 2\Semester A\Advanced Programming\Lesson 15\Solution\Debug\Ex1.exe
